1 subgoal
  
  I : biIndex
  PROP : sbi
  P, Q : monpred.monPred I PROP
  i : I
  ============================
  "HW" : (P -∗ Q) i
  --------------------------------------∗
  (P -∗ Q) i
  
1 subgoal
  
  I : biIndex
  PROP : sbi
  P, Q : monpred.monPred I PROP
  i, j : I
  ============================
  "HW" : (P -∗ Q) j
  "HP" : P j
  --------------------------------------∗
  Q j
  
1 subgoal
  
  I : biIndex
  PROP : sbi
  P, Q : monpred.monPred I PROP
  Objective0 : Objective Q
  𝓟, 𝓠 : PROP
  ============================
  "H2" : ∀ i : I, Q i
  "H3" : 𝓟
  "H4" : 𝓠
  --------------------------------------∗
  ∀ i : I, 𝓟 ∗ 𝓠 ∗ Q i
  
1 subgoal
  
  I : biIndex
  PROP : sbi
  FU0 : BiFUpd PROP * ()
  P, Q : monpred.monPred I PROP
  i : I
  ============================
  --------------------------------------∗
  (Q -∗ emp) i
  
1 subgoal
  
  I : biIndex
  PROP : sbi
  FU0 : BiFUpd PROP * ()
  P : monpred.monPred I PROP
  i : I
  ============================
  --------------------------------------∗
  ∀ _ : (), ∃ _ : (), emp
  
The command has indeed failed with message:
Tactic failure: iFrame: cannot frame (P i).
1 subgoal
  
  I : biIndex
  Σ : gFunctors
  invG0 : invG Σ
  N : namespace
  𝓟 : iProp Σ
  ============================
  "H" : ⎡ inv N (<pers> 𝓟) ⎤
  "H2" : ⎡ ▷ <pers> 𝓟 ⎤
  --------------------------------------□
  |={⊤ ∖ ↑N}=> ⎡ ▷ <pers> 𝓟 ⎤ ∗ (|={⊤}=> ⎡ ▷ 𝓟 ⎤)
  
1 subgoal
  
  I : biIndex
  Σ : gFunctors
  invG0 : invG Σ
  N : namespace
  𝓟 : iProp Σ
  ============================
  "H" : ⎡ inv N (<pers> 𝓟) ⎤
  "H2" : ⎡ ▷ <pers> 𝓟 ⎤
  --------------------------------------□
  "Hclose" : ⎡ ▷ <pers> 𝓟 ={⊤ ∖ ↑N,⊤}=∗ emp ⎤
  --------------------------------------∗
  |={⊤ ∖ ↑N,⊤}=> ⎡ ▷ 𝓟 ⎤
  
